script:habituation3.py,delay:0.5
rewList:0.0C,pokeList:,sndList:,lickList:
rewList:,pokeList:,sndList:,lickList:
rewList:,pokeList:13.158R,sndList:,lickList:11.546L-13.683R-13.758R-14.545R
rewList:,pokeList:,sndList:,lickList:
rewList:,pokeList:,sndList:,lickList:23.307R-23.669R-23.721R
rewList:,pokeList:26.533L,sndList:,lickList:
rewList:,pokeList:,sndList:,lickList:32.13L
rewList:,pokeList:35.076R-38.598L,sndList:,lickList:35.142R-35.991R-36.064R-36.121R-36.171R-36.683R-37.021R-37.086R
rewList:,pokeList:44.201R,sndList:,lickList:41.685L-41.747L-44.53R-44.58R-44.657R
rewList:45.811C-48.252L,pokeList:45.811C-48.252L,sndList:45.8110,lickList:46.278L-47.082L-49.37L-49.732L-49.783L
rewList:,pokeList:,sndList:,lickList:51.202L-51.287L-52.517L-52.626L-52.677L-52.84L
rewList:57.127C-59.058R,pokeList:57.127C-59.058R,sndList:57.1271,lickList:55.444L-56.099L-57.581L-58.386L-59.152R-59.86R
rewList:,pokeList:,sndList:,lickList:64.686R-64.772R-64.822R-64.965R
rewList:,pokeList:66.559C-67.746L,sndList:,lickList:65.108R-65.226R-65.41R-68.928L-68.999L
rewList:74.409C,pokeList:74.409C,sndList:74.4090,lickList:70.166L-70.262L-70.397L-71.189L-71.282L
rewList:77.966C,pokeList:75.644R-77.966C-79.112L,sndList:77.9661,lickList:75.694R-75.866R-75.92R-76.266R-76.352R-76.402R-76.48R-76.579R-76.811R-76.873R-76.923R
rewList:81.909C,pokeList:80.922L-81.909C-83.207R,sndList:81.9090,lickList:83.452R-83.883R-83.97R
rewList:85.221C-87.426L,pokeList:85.221C-87.426L,sndList:85.2210,lickList:85.676L-86.017C-86.481L-89.42L-89.619L
rewList:,pokeList:94.955C,sndList:,lickList:
rewList:,pokeList:96.414R,sndList:,lickList:96.543R
rewList:,pokeList:103.431L,sndList:,lickList:101.295R
rewList:,pokeList:108.025L,sndList:,lickList:
rewList:110.365C,pokeList:110.365C-111.833R-114.165R,sndList:110.3650,lickList:111.933R-112.18R-112.509R-112.588R-112.697R-112.881R-113.175R-113.405R-113.496R-113.546R-113.596R-114.22R-114.426R-114.476R-114.533R-114.852R-114.933R-114.983R-115.061R
rewList:118.327C,pokeList:116.426L-118.327C-119.752R,sndList:118.3270,lickList:117.347L-117.397L-119.891R-119.963R
rewList:121.702C-123.75L,pokeList:121.702C-123.75L,sndList:121.7020,lickList:120.132R-120.246R-120.476R-120.53R-120.58R-120.634R-120.695R-122.158L-122.963L
rewList:,pokeList:,sndList:,lickList:125.867L-126.153L-128.377L-128.447L
rewList:132.104C,pokeList:132.104C-133.464R,sndList:132.1041,lickList:133.54R
rewList:,pokeList:,sndList:,lickList:135.343R-137.786R-138.035R-139.421R-140.086R
rewList:,pokeList:142.828L,sndList:,lickList:140.175R-141.223R-141.308R
rewList:145.778C-149.0C,pokeList:145.777C-147.205R-148.567L-149.0C,sndList:145.7781-149.01,lickList:147.496R-147.612R-147.984R-148.034R-149.455L
rewList:150.573L,pokeList:150.573L,sndList:,lickList:150.26L-152.299L-153.015L-153.23L
rewList:,pokeList:158.604C-159.85R,sndList:,lickList:157.808L-159.893R
rewList:,pokeList:,sndList:,lickList:161.669R-164.498R-165.079R
rewList:166.765C,pokeList:166.765C-168.261L,sndList:166.7650,lickList:165.129R-165.512R-165.751R-165.801R-165.876R
rewList:173.818C,pokeList:171.527L-173.818C,sndList:173.8190,lickList:172.844L
rewList:177.999C,pokeList:175.308R-176.716R-177.999C-179.504L,sndList:178.01,lickList:175.388R-175.447R-175.618R-175.671R-175.756R-175.925R-176.032R-176.082R-176.132R
rewList:182.862C-184.339R,pokeList:182.862C-184.339R,sndList:182.8621,lickList:183.317L-184.121L-184.464R
rewList:,pokeList:,sndList:,lickList:186.18R-187.217R-188.129R-188.382R
rewList:,pokeList:192.784C-194.939L,sndList:,lickList:
rewList:,pokeList:,sndList:,lickList:196.582L-196.743L-196.81L-196.862L
rewList:204.17C,pokeList:202.917L-203.042L-204.17C,sndList:204.170,lickList:200.333L-200.603L
rewList:207.695C-209.916L,pokeList:205.594R-207.695C-209.916L,sndList:207.6960,lickList:205.874R-206.032R-206.082R-206.133R-206.183R-208.151L-208.616C-208.955L
rewList:,pokeList:,sndList:,lickList:212.406L-212.476L-213.465L-214.779L-214.842L
rewList:218.864C,pokeList:217.792L-218.864C,sndList:218.8650,lickList:
rewList:,pokeList:220.394R,sndList:,lickList:220.544R-221.004R-222.172R-223.093R
rewList:,pokeList:228.456R,sndList:,lickList:226.679R-227.315R-227.395R-228.614R-228.667R-228.718R-228.791R
rewList:232.405C,pokeList:230.315L-232.405C-233.865R-234.674R,sndList:232.4051,lickList:234.742R-234.792R
rewList:237.582C-239.736L,pokeList:237.582C-239.736L,sndList:237.5831,lickList:235.252R-235.367R-235.497R-235.619R-235.671R-235.738R-235.855R-235.942R-235.999R-236.049R-236.099R-238.037L-238.306C-238.842L
rewList:,pokeList:,sndList:,lickList:241.589L-241.823L-241.926L-241.983L-242.721L-243.496L-243.622L
rewList:248.358C-249.998R,pokeList:248.358C-249.998R,sndList:248.3580,lickList:248.813L-249.618L
rewList:,pokeList:,sndList:,lickList:250.196R-254.478R
rewList:,pokeList:,sndList:,lickList:257.673R-258.797R-259.716R-260.034R-260.134R
rewList:262.681C-264.544L,pokeList:262.681C-264.544L,sndList:262.6820,lickList:260.184R-261.004R-261.082R-261.162R-261.214R-263.136L-263.941L
rewList:,pokeList:,sndList:,lickList:266.528L
rewList:,pokeList:,sndList:,lickList:
rewList:277.341C,pokeList:275.393L-277.341C-278.749R,sndList:277.3411,lickList:278.902R
rewList:,pokeList:,sndList:,lickList:280.485R-284.279R
rewList:288.698C,pokeList:285.902R-286.919R-288.698C,sndList:288.6981,lickList:287.01R-287.099R-287.46R-287.513R-287.591R
rewList:294.06C,pokeList:290.291L-294.06C,sndList:294.060,lickList:
rewList:299.552C,pokeList:295.553R-299.552C,sndList:299.5521,lickList:295.785R-296.953R-297.479R-297.901R-300.007L
rewList:301.415L,pokeList:301.415L,sndList:,lickList:300.812L-302.093L-303.32L-303.37L-303.427L-303.526L-303.598L-303.787L-303.854L-303.942L-305.184L
rewList:,pokeList:,sndList:,lickList:305.433L-305.822L-305.923L
rewList:310.781C,pokeList:310.781C-312.027R,sndList:310.7810,lickList:312.264R-312.749R-312.968R
rewList:,pokeList:,sndList:,lickList:315.394R-316.766R-317.872R-318.172R-318.382R-318.603R-318.956R-319.042R-319.093R
rewList:320.471C-323.074L,pokeList:320.471C-323.074L,sndList:320.4711,lickList:320.925L-321.133C-321.73L
rewList:,pokeList:,sndList:,lickList:326.414L
rewList:330.652C,pokeList:330.652C-332.111R,sndList:330.6530,lickList:330.486L-332.178R-332.438R
rewList:,pokeList:,sndList:,lickList:336.312R-336.986R
rewList:340.425C-342.311L,pokeList:340.425C-342.311L,sndList:340.4261,lickList:340.88L-341.685L-344.053L-344.127L-344.321L-344.876L-344.956L
rewList:348.319L,pokeList:348.319L-349.472C,sndList:,lickList:
rewList:,pokeList:350.788R,sndList:,lickList:350.843R-351.085R-351.894R-352.983R
rewList:357.623C-359.689L,pokeList:357.623C-359.689L,sndList:357.6240,lickList:355.363R-355.413R-355.464R-358.078L-358.353C-358.882L
rewList:,pokeList:,sndList:,lickList:361.545L-361.771L-362.335L-363.043L
rewList:366.449L,pokeList:366.449L-367.432C-369.571R,sndList:,lickList:
rewList:,pokeList:,sndList:,lickList:371.219R-373.158R
rewList:379.663C,pokeList:376.567R-379.663C,sndList:379.6630,lickList:376.66R-376.823R-376.886R-376.956R-377.069R-377.638R-377.698R-377.749R-380.118L
rewList:382.065L,pokeList:382.065L,sndList:,lickList:380.67C-380.922L-384.087L-384.547L-384.703L
rewList:,pokeList:389.271C,sndList:,lickList:389.079L
rewList:,pokeList:390.779R,sndList:,lickList:391.203R-391.385R-392.095R-392.185R-393.47R-394.103R-394.155R-394.91L
rewList:396.185C-397.961L,pokeList:396.185C-397.961L,sndList:396.1851,lickList:396.64L-397.445L-400.177L
rewList:403.271L,pokeList:403.271L-404.32C,sndList:,lickList:401.631L
rewList:,pokeList:406.686R,sndList:,lickList:406.73R-406.963R-407.105R-407.155R
rewList:412.551C-414.754L,pokeList:412.551C-414.754L,sndList:412.5510,lickList:412.87C-413.005L-413.167C-413.81L
rewList:,pokeList:,sndList:,lickList:417.29L
rewList:422.041L,pokeList:422.041L-424.299R,sndList:,lickList:424.342R
rewList:,pokeList:,sndList:,lickList:425.295R-425.459R-426.248R-426.449R-426.775R-426.871R-427.576R-427.7R-427.869R-427.921R
rewList:,pokeList:433.164R,sndList:,lickList:433.339R-433.547R-433.602R-433.652R
rewList:,pokeList:439.885R,sndList:,lickList:440.183R
rewList:,pokeList:,sndList:,lickList:440.418R-440.496R
rewList:,pokeList:,sndList:,lickList:
rewList:,pokeList:,sndList:,lickList:
rewList:,pokeList:,sndList:,lickList:
rewList:,pokeList:,sndList:,lickList:
rewList:,pokeList:,sndList:,lickList:
rewList:,pokeList:,sndList:,lickList:
rewList:,pokeList:,sndList:,lickList:
rewList:,pokeList:,sndList:,lickList:
rewList:,pokeList:,sndList:,lickList:
rewList:,pokeList:,sndList:,lickList:
rewList:,pokeList:,sndList:,lickList:
rewList:,pokeList:504.195R,sndList:,lickList:
rewList:508.142C,pokeList:508.142C-509.43L,sndList:508.1421,lickList:505.371R-505.445R-505.497R-505.576R
rewList:511.305C-515.243C,pokeList:511.305C-512.735R-515.243C,sndList:511.3050-515.2430,lickList:512.789R-512.856R-513.212R-513.263R-513.321R-513.377R-513.461R
rewList:517.656L,pokeList:517.656L,sndList:,lickList:515.698L-516.044C-516.502L-519.58L-519.722L-519.783L-520.084L-520.149L
rewList:,pokeList:524.97C,sndList:,lickList:521.171L-521.307L-521.408L-524.188L
rewList:,pokeList:526.23R,sndList:,lickList:526.251R-526.302R-526.365R-526.634R-526.819R-527.088R-527.361R-527.534R-528.967R-529.58R-529.63R-529.71R
rewList:,pokeList:532.585R,sndList:,lickList:532.873R-532.924R
rewList:,pokeList:,sndList:,lickList:
rewList:,pokeList:540.587L,sndList:,lickList:
rewList:,pokeList:,sndList:,lickList:
rewList:,pokeList:,sndList:,lickList:
rewList:,pokeList:,sndList:,lickList:
rewList:,pokeList:,sndList:,lickList:
rewList:,pokeList:,sndList:,lickList:
rewList:,pokeList:,sndList:,lickList:
rewList:,pokeList:,sndList:,lickList:
rewList:,pokeList:,sndList:,lickList:
rewList:,pokeList:,sndList:,lickList:
rewList:,pokeList:,sndList:,lickList:
rewList:,pokeList:,sndList:,lickList:
rewList:,pokeList:,sndList:,lickList:
rewList:,pokeList:,sndList:,lickList:
rewList:,pokeList:,sndList:,lickList:
rewList:616.772C,pokeList:616.772C-618.172R,sndList:616.7720,lickList:618.225R-618.36R-619.166R-619.216R-619.266R
rewList:620.664C-622.249L,pokeList:620.664C-622.249L,sndList:620.6650,lickList:621.12L-621.924L-625.382L
rewList:630.247R,pokeList:630.247R,sndList:,lickList:625.633L
rewList:631.62C,pokeList:631.62C-632.855R,sndList:631.6211,lickList:633.042R-633.599R-633.65R-634.654R
rewList:638.803C-640.327L,pokeList:638.803C-640.327L,sndList:638.8030,lickList:636.922R-637.064R-637.616R-637.666R-637.746R-638.987C-639.114C-639.204C-639.257L-640.061L
rewList:,pokeList:,sndList:,lickList:641.118L-643.806L
rewList:647.746R,pokeList:646.279C-647.746R,sndList:,lickList:648.276R-648.329R
rewList:,pokeList:,sndList:,lickList:652.262R-652.327R-652.456R
rewList:,pokeList:,sndList:,lickList:
rewList:,pokeList:,sndList:,lickList:
rewList:,pokeList:,sndList:,lickList:
rewList:,pokeList:,sndList:,lickList:
rewList:,pokeList:,sndList:,lickList:
rewList:,pokeList:,sndList:,lickList:
rewList:,pokeList:,sndList:,lickList:
rewList:,pokeList:,sndList:,lickList:
rewList:,pokeList:,sndList:,lickList:
rewList:,pokeList:,sndList:,lickList:
rewList:,pokeList:,sndList:,lickList:
rewList:,pokeList:,sndList:,lickList:
rewList:,pokeList:,sndList:,lickList:
rewList:,pokeList:,sndList:,lickList:
rewList:,pokeList:,sndList:,lickList:
rewList:,pokeList:,sndList:,lickList:731.829L
rewList:,pokeList:,sndList:,lickList:
rewList:,pokeList:,sndList:,lickList:
rewList:,pokeList:,sndList:,lickList:
rewList:,pokeList:,sndList:,lickList:
rewList:,pokeList:,sndList:,lickList:
rewList:,pokeList:,sndList:,lickList:
rewList:,pokeList:,sndList:,lickList:
rewList:,pokeList:,sndList:,lickList:
rewList:,pokeList:,sndList:,lickList:
rewList:,pokeList:,sndList:,lickList:
rewList:,pokeList:,sndList:,lickList:
rewList:,pokeList:,sndList:,lickList:
rewList:,pokeList:,sndList:,lickList:
rewList:,pokeList:,sndList:,lickList:
rewList:,pokeList:,sndList:,lickList:
rewList:,pokeList:,sndList:,lickList:
rewList:,pokeList:,sndList:,lickList:
rewList:,pokeList:,sndList:,lickList:
rewList:,pokeList:,sndList:,lickList:
rewList:832.636C,pokeList:830.812R-832.636C-833.722L,sndList:832.6371,lickList:
rewList:835.736C,pokeList:835.736C-836.824R-838.733C-840.139L,sndList:835.7361,lickList:836.917R-837.312R-837.367R-837.417R-838.803C-839.087C
rewList:,pokeList:841.726C-842.973R,sndList:,lickList:843.016R-843.228R
rewList:849.21C,pokeList:847.18L-849.21C,sndList:849.2110,lickList:849.44C-849.666L-850.47L
rewList:851.001R,pokeList:851.001R,sndList:,lickList:851.053R-852.544R-852.754R-854.174R
rewList:858.847L,pokeList:857.582C-858.847L,sndList:,lickList:856.012R-856.108R-856.38R-856.43R-856.48R-856.556R
rewList:,pokeList:,sndList:,lickList:860.882L-862.643L-862.7L
rewList:865.618C,pokeList:865.617C-866.93R-868.385C-869.915L,sndList:865.6181,lickList:866.953R-867.135R-867.369R-867.42R-868.534C-868.717C
rewList:872.338C,pokeList:872.338C-873.713R-875.255C,sndList:872.3381,lickList:872.143C-873.774R-874.204R-874.254R-875.336C
rewList:878.763C,pokeList:877.16L-878.763C,sndList:878.7631,lickList:879.218L-880.023L
rewList:881.588R,pokeList:881.588R,sndList:,lickList:881.656R-882.507R-882.756R-884.428R-884.614R-884.814R-885.37R-885.421R-885.471R
rewList:,pokeList:886.631C-887.339C-888.877L,sndList:,lickList:889.429L-889.483L
rewList:895.148C,pokeList:895.148C,sndList:895.1480,lickList:891.541L
rewList:,pokeList:896.387R-897.907C-900.141L,sndList:,lickList:896.472R-896.603R-896.654R-896.738R-896.826R-896.878R
rewList:901.732C-904.554R,pokeList:901.732C-904.554R,sndList:901.7321,lickList:902.187L-902.301C-902.369C-902.87C-902.991L-904.647R
rewList:,pokeList:,sndList:,lickList:908.438R-908.521R-909.351R-909.427R-909.478R
rewList:,pokeList:911.392C-912.936L,sndList:,lickList:910.646C-911.831C-911.929C-915.24L
rewList:918.899C,pokeList:918.899C-920.055R,sndList:918.8991,lickList:920.051R-920.32R-920.37R
rewList:922.189C,pokeList:922.189C-923.504L,sndList:922.1890,lickList:924.244L
rewList:,pokeList:,sndList:,lickList:
rewList:,pokeList:931.521L,sndList:,lickList:
rewList:,pokeList:,sndList:,lickList:
rewList:,pokeList:,sndList:,lickList:
rewList:,pokeList:,sndList:,lickList:950.056L
rewList:,pokeList:,sndList:,lickList:
rewList:,pokeList:,sndList:,lickList:
rewList:,pokeList:,sndList:,lickList:
rewList:,pokeList:,sndList:,lickList:
rewList:,pokeList:,sndList:,lickList:
rewList:,pokeList:,sndList:,lickList:
rewList:,pokeList:,sndList:,lickList:
