rewList:0.0C-0.085C,pokeList:0.085L-0.085R-0.085C,sndList:0.0851,lickList:
rewList:,pokeList:,sndList:,lickList:
rewList:,pokeList:,sndList:,lickList:14.917R
rewList:,pokeList:15.256L,sndList:,lickList:16.558L
rewList:,pokeList:,sndList:,lickList:
rewList:,pokeList:,sndList:,lickList:
rewList:,pokeList:33.173L,sndList:,lickList:
rewList:,pokeList:,sndList:,lickList:
rewList:,pokeList:,sndList:,lickList:43.365L-43.868L
rewList:,pokeList:49.023L,sndList:,lickList:
rewList:,pokeList:,sndList:,lickList:
rewList:,pokeList:57.893R-58.952R-59.122R-59.692R,sndList:,lickList:55.703L-55.994L-56.096L-57.667R-57.724R-57.781R-58.585R
rewList:,pokeList:60.606R-60.793R-62.601R,sndList:,lickList:60.421R-60.486R-60.536R-60.961R-61.017R-61.096R-61.302R-61.358R-61.502R-62.45R-62.5R-62.55R-63.361R-63.468R-63.531R-63.587R-63.673R-63.738R-63.788R-63.989R-64.039R-64.108R-64.263R-64.324R-64.374R-64.434R-64.983R
rewList:,pokeList:66.04R-66.307R-67.1R,sndList:,lickList:65.045R-65.095R-65.351R-65.407R-65.873R-65.923R-66.144R-66.196R-66.246R-66.297R-67.273R-67.324R-67.39R-67.465R-68.739R-68.789R-68.864R-69.017R-69.177R-69.227R-69.288R-69.338R-69.402R-69.633R-69.683R-69.747R-69.822R
rewList:,pokeList:70.588R,sndList:,lickList:
rewList:,pokeList:,sndList:,lickList:
rewList:81.428C,pokeList:81.428C-82.595C-83.219C,sndList:81.4291,lickList:
rewList:89.573R-89.773R,pokeList:89.573R-89.773R,sndList:,lickList:89.416R-89.478R-90.013R
rewList:90.193R-90.482R,pokeList:90.193R-90.482R,sndList:,lickList:90.064R-90.561R-90.775R-90.825R-91.071R-91.172R-91.266R-91.412R-91.462R-91.512R-91.563R-91.613R-91.663R-91.736R-91.811R-92.037R-92.113R-92.296R-92.352R-92.425R-92.502R-93.103R-93.155R-93.239R-93.293R-93.402R-93.454R-93.522R-93.572R-93.635R-94.196R-94.403R-94.453R-94.503R-94.566R-94.616R-94.683R-94.753R-94.803R-94.853R-94.929R-94.979R
rewList:,pokeList:95.351R-99.703R,sndList:,lickList:96.606R-96.665R-97.82R-97.873R-97.923R-97.99R-98.418R-98.618R-98.685R-98.739R-98.789R-98.851R-98.997R-99.224R-99.339R-99.389R-99.619R-99.669R-99.738R-99.788R
rewList:,pokeList:101.041R-105.05R,sndList:,lickList:100.067R-100.117R-100.209R-100.259R-100.313R-100.363R-100.43R-100.508R-100.558R-101.743R-101.799R-101.886R-102.354R-102.413R-103.021R-103.723R-103.801R-103.86R
rewList:,pokeList:108.184R,sndList:,lickList:106.042R-106.092R-106.156R-106.206R-106.269R-106.711R-106.77R-106.82R-106.87R-106.964R-107.991R-108.047R-108.097R-108.165R-108.215R-108.281R-108.359R
rewList:,pokeList:,sndList:,lickList:
rewList:,pokeList:,sndList:,lickList:
rewList:,pokeList:,sndList:,lickList:
rewList:,pokeList:,sndList:,lickList:
rewList:,pokeList:,sndList:,lickList:
rewList:,pokeList:,sndList:,lickList:
rewList:,pokeList:,sndList:,lickList:
rewList:,pokeList:,sndList:,lickList:
rewList:,pokeList:,sndList:,lickList:
rewList:,pokeList:,sndList:,lickList:
rewList:,pokeList:,sndList:,lickList:164.145R-164.274R-164.331R-164.382R-164.493R-164.543R
rewList:,pokeList:166.745R-168.945R,sndList:,lickList:165.818R-166.629R-166.679R-166.738R-166.813R-168.594R-168.773R-168.848R-168.898R
rewList:,pokeList:,sndList:,lickList:
rewList:,pokeList:179.635L,sndList:,lickList:
rewList:,pokeList:,sndList:,lickList:182.472L-183.095L-183.739L
rewList:,pokeList:185.557L-189.095L,sndList:,lickList:
rewList:,pokeList:193.995L,sndList:,lickList:
rewList:,pokeList:,sndList:,lickList:
rewList:,pokeList:,sndList:,lickList:
rewList:,pokeList:206.747L-208.383L,sndList:,lickList:
rewList:,pokeList:,sndList:,lickList:
rewList:,pokeList:,sndList:,lickList:218.046R-218.641R
rewList:,pokeList:,sndList:,lickList:220.291R-220.575R-221.624R-221.674R-222.09R-222.859R-222.911R
rewList:,pokeList:225.485R,sndList:,lickList:
rewList:,pokeList:,sndList:,lickList:
rewList:,pokeList:237.67R,sndList:,lickList:
rewList:,pokeList:,sndList:,lickList:245.07R
rewList:,pokeList:247.703R,sndList:,lickList:245.446R-245.517R-245.593R-246.46R-246.541R-247.122R
rewList:,pokeList:252.273R,sndList:,lickList:252.802R-252.927R-253.102R-253.23R-253.353R-254.48R-254.53R-254.853R-254.906R-255.089R
rewList:,pokeList:256.626R,sndList:,lickList:255.168R-255.218R-255.365R-255.525R-255.587R-255.637R-255.687R-255.739R-256.282R-256.332R
rewList:,pokeList:262.718R-263.825R,sndList:,lickList:
rewList:,pokeList:,sndList:,lickList:
rewList:,pokeList:,sndList:,lickList:
rewList:,pokeList:,sndList:,lickList:
rewList:,pokeList:281.35L,sndList:,lickList:
rewList:,pokeList:,sndList:,lickList:
rewList:,pokeList:,sndList:,lickList:
rewList:,pokeList:299.53L,sndList:,lickList:298.373L
rewList:,pokeList:300.329L,sndList:,lickList:
rewList:,pokeList:,sndList:,lickList:
rewList:,pokeList:,sndList:,lickList:
rewList:,pokeList:,sndList:,lickList:
rewList:,pokeList:322.149L,sndList:,lickList:
rewList:,pokeList:,sndList:,lickList:
rewList:,pokeList:,sndList:,lickList:
rewList:,pokeList:,sndList:,lickList:
rewList:,pokeList:,sndList:,lickList:
rewList:,pokeList:,sndList:,lickList:
rewList:,pokeList:,sndList:,lickList:
rewList:,pokeList:358.222L,sndList:,lickList:
rewList:,pokeList:,sndList:,lickList:
rewList:,pokeList:367.187L,sndList:,lickList:
rewList:,pokeList:373.924L,sndList:,lickList:
rewList:,pokeList:,sndList:,lickList:
rewList:,pokeList:,sndList:,lickList:
rewList:,pokeList:,sndList:,lickList:
rewList:,pokeList:,sndList:,lickList:
rewList:,pokeList:,sndList:,lickList:399.655L
rewList:,pokeList:,sndList:,lickList:
rewList:,pokeList:,sndList:,lickList:
rewList:,pokeList:413.046R,sndList:,lickList:412.627R-412.782R-412.859R-412.91R-412.986R
rewList:,pokeList:,sndList:,lickList:
rewList:,pokeList:,sndList:,lickList:
rewList:,pokeList:,sndList:,lickList:
rewList:,pokeList:,sndList:,lickList:
rewList:,pokeList:,sndList:,lickList:
rewList:,pokeList:,sndList:,lickList:
rewList:,pokeList:449.1L,sndList:,lickList:
rewList:,pokeList:452.508L,sndList:,lickList:451.129L-451.186L
rewList:,pokeList:,sndList:,lickList:
rewList:,pokeList:462.444L-463.947L,sndList:,lickList:
rewList:,pokeList:468.046L-469.374L,sndList:,lickList:
rewList:,pokeList:,sndList:,lickList:
rewList:,pokeList:,sndList:,lickList:
rewList:,pokeList:,sndList:,lickList:
rewList:,pokeList:,sndList:,lickList:
rewList:,pokeList:,sndList:,lickList:
rewList:,pokeList:,sndList:,lickList:
rewList:501.711C,pokeList:501.711C-503.122C-503.375C,sndList:501.7111,lickList:501.358C-501.516C
rewList:,pokeList:508.675C,sndList:,lickList:
rewList:,pokeList:,sndList:,lickList:
rewList:,pokeList:519.88R-520.056R-520.274R,sndList:,lickList:519.587R-519.663R
rewList:,pokeList:521.022R-522.339R-524.087R-524.271R-524.47R-525.175R,sndList:,lickList:520.821R-520.882R-520.952R-521.989R-522.124R-522.176R-522.259R-522.309R-522.372R-523.228R-523.286R-523.895R-524.35R-524.402R-524.822R-524.872R-524.942R-525.02R
rewList:,pokeList:527.182R,sndList:,lickList:525.92R-526.004R-526.054R-526.182R-526.232R-526.287R-526.338R-526.391R-526.444R-526.525R-526.596R-526.65R-526.77R-528.706R-529.746R-529.796R-529.944R-530.03R-530.09R-530.142R-530.211R
rewList:,pokeList:532.397R-533.678R-534.203R-535.166R,sndList:,lickList:530.326R-530.429R-530.595R-530.954R-531.037R-531.117R-531.167R-531.217R-531.268R-531.319R-531.38R-531.543R-531.646R-532.149R-532.199R-532.269R-532.319R-532.385R
rewList:,pokeList:538.023R,sndList:,lickList:
rewList:,pokeList:544.729R,sndList:,lickList:543.93R-543.98R-544.043R-544.117R
rewList:,pokeList:,sndList:,lickList:
rewList:,pokeList:552.582R,sndList:,lickList:551.835R-553.678R-553.733R-553.882R-553.936R-554.13R-554.235R-554.426R-554.514R
rewList:,pokeList:555.735R,sndList:,lickList:556.592R-556.87R-557.271R-557.349R-558.182R-558.298R-559.039R-559.106R-559.158R-559.258R-559.326R
rewList:,pokeList:560.423R-565.228R,sndList:,lickList:562.434R-562.505R-562.635R-562.735R-562.808R-563.046R-563.21R-563.535R-563.65R-563.7R-563.755R-563.853R-564.274R-564.675R-564.864R-564.914R-565.029R
rewList:,pokeList:567.871R,sndList:,lickList:565.934R-566.503R-566.555R-566.63R-566.691R-566.741R-566.791R-566.994R-567.132R-567.215R-567.274R-567.428R-567.478R-567.582R-567.753R-567.811R-567.861R
rewList:,pokeList:,sndList:,lickList:
rewList:,pokeList:,sndList:,lickList:578.038R-578.385R-578.478R-579.936R-580.243R
rewList:,pokeList:584.245R,sndList:,lickList:580.391R-580.499R-580.553R-580.606R-580.907R-580.957R-581.013R-581.063R-581.126R-581.27R-583.433R-583.483R-583.688R
rewList:,pokeList:586.503R-586.808R-589.61R-590.045R,sndList:,lickList:587.072R-587.122R-587.186R-589.895R
rewList:,pokeList:595.134R,sndList:,lickList:
rewList:,pokeList:,sndList:,lickList:
rewList:,pokeList:603.005R,sndList:,lickList:
rewList:,pokeList:,sndList:,lickList:
rewList:,pokeList:,sndList:,lickList:
rewList:,pokeList:,sndList:,lickList:
rewList:,pokeList:,sndList:,lickList:
rewList:,pokeList:,sndList:,lickList:
rewList:,pokeList:,sndList:,lickList:
rewList:,pokeList:,sndList:,lickList:
rewList:,pokeList:,sndList:,lickList:
rewList:,pokeList:,sndList:,lickList:
rewList:,pokeList:,sndList:,lickList:
rewList:,pokeList:,sndList:,lickList:
rewList:,pokeList:,sndList:,lickList:
rewList:,pokeList:,sndList:,lickList:
rewList:,pokeList:,sndList:,lickList:
rewList:,pokeList:,sndList:,lickList:
rewList:,pokeList:,sndList:,lickList:
rewList:,pokeList:,sndList:,lickList:
rewList:,pokeList:,sndList:,lickList:
rewList:,pokeList:,sndList:,lickList:
rewList:,pokeList:704.438R-704.739R,sndList:,lickList:
rewList:,pokeList:709.767R-709.9R,sndList:,lickList:709.598R-709.674R
rewList:,pokeList:711.202R,sndList:,lickList:710.999R-711.094R-711.144R-711.211R-711.261R-711.326R-711.45L-711.55L-711.605R-713.088L-713.141R
rewList:,pokeList:,sndList:,lickList:
rewList:,pokeList:,sndList:,lickList:
rewList:,pokeList:,sndList:,lickList:
rewList:,pokeList:,sndList:,lickList:
rewList:,pokeList:,sndList:,lickList:
rewList:,pokeList:,sndList:,lickList:
rewList:,pokeList:,sndList:,lickList:
rewList:,pokeList:,sndList:,lickList:
rewList:,pokeList:,sndList:,lickList:
rewList:,pokeList:,sndList:,lickList:
rewList:768.503C,pokeList:768.503C-769.614C,sndList:768.5031,lickList:
rewList:,pokeList:,sndList:,lickList:
rewList:,pokeList:,sndList:,lickList:
rewList:,pokeList:,sndList:,lickList:
rewList:,pokeList:,sndList:,lickList:
rewList:,pokeList:,sndList:,lickList:793.857L
rewList:,pokeList:,sndList:,lickList:
rewList:,pokeList:,sndList:,lickList:
rewList:,pokeList:806.057L,sndList:,lickList:
rewList:811.591C-812.438L,pokeList:811.591C-812.438L-812.579C,sndList:811.5911,lickList:
rewList:,pokeList:,sndList:,lickList:
rewList:,pokeList:,sndList:,lickList:
rewList:,pokeList:,sndList:,lickList:
rewList:,pokeList:,sndList:,lickList:833.768L
rewList:,pokeList:,sndList:,lickList:
rewList:,pokeList:,sndList:,lickList:840.817L-841.526L
rewList:,pokeList:,sndList:,lickList:
rewList:,pokeList:,sndList:,lickList:
rewList:,pokeList:,sndList:,lickList:
rewList:,pokeList:,sndList:,lickList:
rewList:,pokeList:866.586L,sndList:,lickList:
rewList:,pokeList:,sndList:,lickList:
rewList:,pokeList:878.036L,sndList:,lickList:
rewList:,pokeList:,sndList:,lickList:
rewList:,pokeList:888.817L,sndList:,lickList:
rewList:,pokeList:890.798L,sndList:,lickList:
rewList:895.586C,pokeList:895.586C,sndList:895.5861,lickList:
rewList:,pokeList:,sndList:,lickList:
rewList:,pokeList:,sndList:,lickList:
rewList:,pokeList:,sndList:,lickList:
rewList:,pokeList:,sndList:,lickList:917.982L-918.58L
rewList:,pokeList:,sndList:,lickList:
rewList:,pokeList:,sndList:,lickList:
rewList:,pokeList:934.543L,sndList:,lickList:
rewList:,pokeList:,sndList:,lickList:
rewList:,pokeList:943.425L,sndList:,lickList:
rewList:,pokeList:,sndList:,lickList:
rewList:,pokeList:,sndList:,lickList:954.0L-954.259L-954.661L
rewList:,pokeList:959.887L,sndList:,lickList:
rewList:,pokeList:964.285L,sndList:,lickList:
rewList:,pokeList:,sndList:,lickList:969.293L
rewList:,pokeList:974.298L,sndList:,lickList:
rewList:,pokeList:976.801L,sndList:,lickList:
rewList:,pokeList:984.38L,sndList:,lickList:
rewList:,pokeList:,sndList:,lickList:
rewList:,pokeList:993.434L,sndList:,lickList:
rewList:1000.294C,pokeList:997.246L-1000.293C,sndList:1000.2940,lickList:
rewList:,pokeList:1001.53C,sndList:,lickList:
rewList:1006.2R-1007.607R-1008.116R-1009.403R-1009.659R-1010.051R,pokeList:1006.2R-1007.607R-1008.116R-1009.403R-1009.659R-1010.051R,sndList:,lickList:1008.006R-1008.082R-1008.993R-1009.953R-1010.003R-1010.065R-1010.14R
rewList:,pokeList:1010.587R-1010.892R-1011.274R,sndList:,lickList:1011.829R-1012.418R-1012.477R
rewList:,pokeList:1019.443R,sndList:,lickList:1016.419R-1016.623R-1016.886R-1016.964R-1017.02R-1017.126R-1017.176R-1018.388R-1018.497R-1018.591R
rewList:,pokeList:1025.047R,sndList:,lickList:1020.624R-1020.701R-1021.097R-1021.148R-1024.308R-1024.457R-1024.605R-1024.655R-1024.852R-1024.92R-1024.97R-1025.038R-1025.534R
rewList:,pokeList:1025.915R-1027.933R-1028.442R-1028.735R,sndList:,lickList:1025.584R-1025.717R-1025.786R-1025.838R-1025.888R-1025.938R-1025.99R-1027.039R-1028.36R
rewList:,pokeList:1032.796R,sndList:,lickList:1032.196R
rewList:,pokeList:1039.9R-1040.382R,sndList:,lickList:
rewList:,pokeList:1040.73R-1043.211R-1043.615R,sndList:,lickList:1041.681R-1041.829R-1041.879R-1043.373R
rewList:,pokeList:1049.559R,sndList:,lickList:1046.33R-1046.386R-1048.398R-1048.624R-1048.682R-1048.828R
rewList:,pokeList:1054.448R,sndList:,lickList:1052.026R-1052.076R-1052.126R-1052.303R-1052.36R-1052.603R-1052.974R-1053.551R-1053.626R-1053.884R-1054.329R-1054.379R-1054.447R-1054.497R-1054.559R
rewList:,pokeList:1058.111R-1059.982R,sndList:,lickList:
rewList:,pokeList:1064.381R,sndList:,lickList:1063.123R-1063.191R-1063.244R-1063.294R-1063.358R-1063.41R-1063.463R-1064.254R-1064.304R-1064.377R
rewList:,pokeList:,sndList:,lickList:
rewList:,pokeList:,sndList:,lickList:
rewList:,pokeList:,sndList:,lickList:
rewList:,pokeList:,sndList:,lickList:
rewList:,pokeList:,sndList:,lickList:
rewList:,pokeList:1093.93L,sndList:,lickList:
rewList:,pokeList:,sndList:,lickList:
rewList:,pokeList:,sndList:,lickList:
rewList:,pokeList:,sndList:,lickList:
rewList:,pokeList:,sndList:,lickList:
rewList:,pokeList:,sndList:,lickList:
rewList:,pokeList:,sndList:,lickList:
rewList:,pokeList:,sndList:,lickList:
rewList:,pokeList:,sndList:,lickList:
rewList:,pokeList:,sndList:,lickList:
rewList:,pokeList:,sndList:,lickList:
rewList:,pokeList:,sndList:,lickList:
rewList:,pokeList:,sndList:,lickList:
rewList:,pokeList:,sndList:,lickList:
rewList:,pokeList:,sndList:,lickList:
rewList:,pokeList:,sndList:,lickList:
rewList:,pokeList:,sndList:,lickList:
rewList:,pokeList:,sndList:,lickList:
rewList:,pokeList:,sndList:,lickList:
rewList:,pokeList:,sndList:,lickList:
rewList:,pokeList:,sndList:,lickList:
rewList:,pokeList:,sndList:,lickList:
rewList:,pokeList:,sndList:,lickList:
rewList:,pokeList:,sndList:,lickList:
rewList:,pokeList:,sndList:,lickList:
rewList:,pokeList:,sndList:,lickList:
rewList:,pokeList:1222.223L,sndList:,lickList:1225.62L
rewList:,pokeList:,sndList:,lickList:1225.87L-1226.097L-1226.155L
rewList:,pokeList:,sndList:,lickList:
rewList:,pokeList:1235.839L,sndList:,lickList:
rewList:1243.153C,pokeList:1243.153C-1243.378C-1243.821C-1243.96C,sndList:1243.1531,lickList:1243.266C
rewList:1245.884R-1250.111R,pokeList:1245.884R-1250.111R,sndList:,lickList:1247.386R-1247.813R
rewList:,pokeList:,sndList:,lickList:
rewList:,pokeList:1257.758R,sndList:,lickList:1257.645R-1257.695R-1257.754R-1257.828R-1257.9R
rewList:,pokeList:,sndList:,lickList:
rewList:,pokeList:,sndList:,lickList:
rewList:,pokeList:,sndList:,lickList:
rewList:,pokeList:,sndList:,lickList:
rewList:,pokeList:,sndList:,lickList:
rewList:,pokeList:,sndList:,lickList:
rewList:,pokeList:,sndList:,lickList:
rewList:,pokeList:,sndList:,lickList:
rewList:,pokeList:,sndList:,lickList:
rewList:,pokeList:,sndList:,lickList:
rewList:,pokeList:,sndList:,lickList:
rewList:,pokeList:,sndList:,lickList:
rewList:,pokeList:,sndList:,lickList:
rewList:,pokeList:,sndList:,lickList:
rewList:,pokeList:,sndList:,lickList:
rewList:,pokeList:,sndList:,lickList:1340.512R
rewList:1341.737C,pokeList:1341.737C-1344.52C-1344.645C,sndList:1341.7371,lickList:
rewList:1349.885R-1350.663R,pokeList:1349.885R-1350.663R,sndList:,lickList:1350.44R-1350.574R-1350.627R-1350.687R
rewList:1351.193R,pokeList:1351.193R-1352.868R,sndList:,lickList:1350.763R-1350.855R-1351.966R-1352.027R-1352.101R-1352.151R-1352.202R-1352.3R
rewList:,pokeList:,sndList:,lickList:
rewList:,pokeList:,sndList:,lickList:
rewList:,pokeList:,sndList:,lickList:
rewList:,pokeList:,sndList:,lickList:
rewList:,pokeList:,sndList:,lickList:
rewList:,pokeList:,sndList:,lickList:
rewList:,pokeList:,sndList:,lickList:
rewList:,pokeList:,sndList:,lickList:
rewList:,pokeList:,sndList:,lickList:
rewList:,pokeList:1402.432L-1402.544L,sndList:,lickList:
rewList:,pokeList:1410.365L,sndList:,lickList:
rewList:,pokeList:,sndList:,lickList:
rewList:,pokeList:1419.262L,sndList:,lickList:
rewList:,pokeList:,sndList:,lickList:
rewList:,pokeList:1426.674R-1429.746R,sndList:,lickList:1426.487R-1426.537R-1427.72R-1427.77R-1427.927R-1429.638R-1429.688R
rewList:,pokeList:,sndList:,lickList:
rewList:,pokeList:,sndList:,lickList:
rewList:,pokeList:,sndList:,lickList:
rewList:,pokeList:,sndList:,lickList:
rewList:,pokeList:,sndList:,lickList:
rewList:,pokeList:,sndList:,lickList:
rewList:1462.539C,pokeList:1462.539C,sndList:1462.540,lickList:
rewList:1469.355R,pokeList:1469.355R,sndList:,lickList:1469.204R-1469.254R-1469.316R-1469.39R
rewList:,pokeList:1472.965R,sndList:,lickList:1471.738R
rewList:,pokeList:,sndList:,lickList:
rewList:,pokeList:1484.16R-1484.711R,sndList:,lickList:1484.04R-1484.09R-1484.154R-1485.655R-1485.705R-1485.776R
rewList:,pokeList:1487.37R,sndList:,lickList:1485.943R-1485.993R-1486.095R-1486.145R-1486.195R-1486.252R-1486.328R
rewList:,pokeList:,sndList:,lickList:
rewList:,pokeList:,sndList:,lickList:
rewList:,pokeList:,sndList:,lickList:
rewList:,pokeList:,sndList:,lickList:
rewList:,pokeList:,sndList:,lickList:
rewList:,pokeList:,sndList:,lickList:
rewList:,pokeList:,sndList:,lickList:
rewList:,pokeList:,sndList:,lickList:
rewList:,pokeList:,sndList:,lickList:
rewList:,pokeList:1538.871L,sndList:,lickList:
rewList:,pokeList:,sndList:,lickList:
rewList:,pokeList:,sndList:,lickList:1546.323R-1549.948L
rewList:,pokeList:,sndList:,lickList:
rewList:,pokeList:,sndList:,lickList:
rewList:,pokeList:,sndList:,lickList:
rewList:,pokeList:,sndList:,lickList:
rewList:,pokeList:,sndList:,lickList:
rewList:,pokeList:,sndList:,lickList:
rewList:,pokeList:,sndList:,lickList:
rewList:,pokeList:,sndList:,lickList:
rewList:,pokeList:,sndList:,lickList:
rewList:,pokeList:,sndList:,lickList:
rewList:,pokeList:,sndList:,lickList:
rewList:,pokeList:,sndList:,lickList:
rewList:,pokeList:,sndList:,lickList:
rewList:,pokeList:,sndList:,lickList:
rewList:,pokeList:,sndList:,lickList:
rewList:,pokeList:,sndList:,lickList:
rewList:,pokeList:,sndList:,lickList:
rewList:,pokeList:,sndList:,lickList:
rewList:,pokeList:,sndList:,lickList:
rewList:,pokeList:,sndList:,lickList:
rewList:,pokeList:,sndList:,lickList:
rewList:,pokeList:,sndList:,lickList:
rewList:,pokeList:,sndList:,lickList:
rewList:,pokeList:1665.997L-1668.422L,sndList:,lickList:
rewList:,pokeList:,sndList:,lickList:
rewList:,pokeList:1679.26R,sndList:,lickList:1678.937R-1678.988R-1679.45R-1679.509R
rewList:,pokeList:1681.041R,sndList:,lickList:
rewList:,pokeList:1688.062R,sndList:,lickList:
rewList:,pokeList:,sndList:,lickList:
rewList:,pokeList:,sndList:,lickList:
rewList:,pokeList:,sndList:,lickList:
rewList:,pokeList:,sndList:,lickList:
rewList:,pokeList:,sndList:,lickList:
rewList:,pokeList:,sndList:,lickList:
rewList:,pokeList:,sndList:,lickList:
rewList:,pokeList:,sndList:,lickList:
rewList:,pokeList:,sndList:,lickList:
rewList:,pokeList:,sndList:,lickList:
rewList:,pokeList:,sndList:,lickList:
rewList:,pokeList:,sndList:,lickList:
rewList:,pokeList:,sndList:,lickList:
rewList:,pokeList:,sndList:,lickList:
rewList:,pokeList:,sndList:,lickList:
rewList:,pokeList:,sndList:,lickList:
rewList:,pokeList:,sndList:,lickList:
rewList:,pokeList:,sndList:,lickList:
rewList:,pokeList:,sndList:,lickList:
rewList:,pokeList:,sndList:,lickList:
rewList:,pokeList:,sndList:,lickList:
rewList:,pokeList:,sndList:,lickList:
rewList:,pokeList:,sndList:,lickList:
rewList:,pokeList:,sndList:,lickList:
rewList:,pokeList:,sndList:,lickList:
rewList:,pokeList:,sndList:,lickList:
rewList:,pokeList:,sndList:,lickList:
rewList:,pokeList:,sndList:,lickList:
rewList:,pokeList:1831.723L,sndList:,lickList:
rewList:,pokeList:1836.327R,sndList:,lickList:
rewList:,pokeList:,sndList:,lickList:
rewList:,pokeList:,sndList:,lickList:
rewList:,pokeList:,sndList:,lickList:
rewList:,pokeList:,sndList:,lickList:
rewList:,pokeList:,sndList:,lickList:
rewList:,pokeList:,sndList:,lickList:
rewList:,pokeList:,sndList:,lickList:
rewList:,pokeList:,sndList:,lickList:
rewList:,pokeList:,sndList:,lickList:
rewList:,pokeList:,sndList:,lickList:
rewList:,pokeList:1892.557L,sndList:,lickList:
rewList:,pokeList:,sndList:,lickList:
rewList:,pokeList:,sndList:,lickList:
rewList:,pokeList:,sndList:,lickList:
rewList:,pokeList:,sndList:,lickList:
rewList:,pokeList:1921.026L,sndList:,lickList:
rewList:,pokeList:1923.397L-1925.092L,sndList:,lickList:1924.651L-1924.844L-1925.783L
rewList:,pokeList:,sndList:,lickList:
rewList:,pokeList:,sndList:,lickList:
rewList:,pokeList:,sndList:,lickList:
rewList:,pokeList:,sndList:,lickList:
rewList:,pokeList:,sndList:,lickList:
rewList:,pokeList:,sndList:,lickList:
rewList:,pokeList:1957.439R-1958.181R,sndList:,lickList:1957.787R-1957.837R-1957.918R-1957.968R-1958.032R
rewList:,pokeList:,sndList:,lickList:
rewList:,pokeList:,sndList:,lickList:
rewList:,pokeList:,sndList:,lickList:
rewList:,pokeList:,sndList:,lickList:
rewList:,pokeList:,sndList:,lickList:
rewList:,pokeList:,sndList:,lickList:
rewList:,pokeList:,sndList:,lickList:
rewList:,pokeList:,sndList:,lickList:
rewList:,pokeList:,sndList:,lickList:
rewList:,pokeList:,sndList:,lickList:
rewList:,pokeList:,sndList:,lickList:
rewList:,pokeList:,sndList:,lickList:
rewList:,pokeList:,sndList:,lickList:
rewList:,pokeList:,sndList:,lickList:
rewList:,pokeList:,sndList:,lickList:
rewList:,pokeList:,sndList:,lickList:
rewList:,pokeList:,sndList:,lickList:
rewList:,pokeList:,sndList:,lickList:
rewList:,pokeList:,sndList:,lickList:
rewList:,pokeList:,sndList:,lickList:
rewList:,pokeList:,sndList:,lickList:
rewList:,pokeList:,sndList:,lickList:
rewList:,pokeList:,sndList:,lickList:
